<svg
        baseProfile="full"
        width="100%" height="100%"
        xmlns="http://www.w3.org/2000/svg">

    <rect width="100%" height="100%" fill="lightgrey" style="stroke-width:3;stroke:rgb(0,0,0)"/>
    <text x="50%" y="45%" dominant-baseline="middle" text-anchor="middle" font-family="Verdana" font-size="20"
          fill="black">
        Upload
    </text>
    <text x="50%" y="60%" dominant-baseline="middle" text-anchor="middle" font-family="Verdana" font-size="20"
          fill="black">
            Image
    </text>

</svg>